…
``` r
dennys %>%
  mutate(
    bradford_lived = case_when(state %in% c("MI", "NC", "IL", "ME") ~ "Yes",
                               TRUE ~ "No")
    )
```

    ## # A tibble: 1,643 x 7
    ##    address             city        state zip   longitude latitude bradford_lived
    ##    <chr>               <chr>       <chr> <chr>     <dbl>    <dbl> <chr>         
    ##  1 2900 Denali         Anchorage   AK    99503    -150.      61.2 No            
    ##  2 3850 Debarr Road    Anchorage   AK    99508    -150.      61.2 No            
    ##  3 1929 Airport Way    Fairbanks   AK    99701    -148.      64.8 No            
    ##  4 230 Connector Dr    Auburn      AL    36849     -85.5     32.6 No            
    ##  5 224 Daniel Payne D… Birmingham  AL    35207     -86.8     33.6 No            
    ##  6 900 16th St S, Com… Birmingham  AL    35294     -86.8     33.5 No            
    ##  7 5931 Alabama Highw… Cullman     AL    35056     -86.9     34.2 No            
    ##  8 2190 Ross Clark Ci… Dothan      AL    36301     -85.4     31.2 No            
    ##  9 900 Tyson Rd        Hope Hull … AL    36043     -86.4     32.2 No            
    ## 10 4874 University Dr… Huntsville  AL    35816     -86.7     34.7 No            
    ## # … with 1,633 more rows
…
To create a new variable called `country` where if the state is in the
US, `country` is set to `"United States"` we would then do:

``` r
dennys %>% 
  mutate(
    country = case_when(state %in% states$abbreviation ~ "United States",
                        TRUE ~ "Other")
    ) %>% 
  filter(country != "Other")
```

    ## # A tibble: 1,643 x 7
    ##    address                city         state zip   longitude latitude country   
    ##    <chr>                  <chr>        <chr> <chr>     <dbl>    <dbl> <chr>     
    ##  1 2900 Denali            Anchorage    AK    99503    -150.      61.2 United St…
    ##  2 3850 Debarr Road       Anchorage    AK    99508    -150.      61.2 United St…
    ##  3 1929 Airport Way       Fairbanks    AK    99701    -148.      64.8 United St…
    ##  4 230 Connector Dr       Auburn       AL    36849     -85.5     32.6 United St…
    ##  5 224 Daniel Payne Driv… Birmingham   AL    35207     -86.8     33.6 United St…
    ##  6 900 16th St S, Common… Birmingham   AL    35294     -86.8     33.5 United St…
    ##  7 5931 Alabama Highway,… Cullman      AL    35056     -86.9     34.2 United St…
    ##  8 2190 Ross Clark Circle Dothan       AL    36301     -85.4     31.2 United St…
    ##  9 900 Tyson Rd           Hope Hull (… AL    36043     -86.4     32.2 United St…
    ## 10 4874 University Drive  Huntsville   AL    35816     -86.7     34.7 United St…
    ## # … with 1,633 more rows
…
